module dynasty-server

go 1.18

require (
	github.com/labstack/echo/v4 v4.11.1
	github.com/stretchr/testify v1.8.1
)

require (
	github.com/davecgh/go-spew v1.1.1 // indirect
	github.com/labstack/gommon v0.4.0 // indirect
	github.com/mattn/go-colorable v0.1.13 // indirect
	github.com/mattn/go-isatty v0.0.19 // indirect
	github.com/pmezard/go-difflib v1.0.0 // indirect
	github.com/valyala/bytebufferpool v1.0.0 // indirect
	github.com/valyala/fasttemplate v1.2.2 // indirect
	golang.org/x/crypto v0.11.0 // indirect
	golang.org/x/net v0.12.0 // indirect
	golang.org/x/sys v0.10.0 // indirect
	golang.org/x/text v0.11.0 // indirect
	gopkg.in/yaml.v3 v3.0.1 // indirect
)
